%YAML 1.1
%TAG !u! tag:unity3d.com,2011:
--- !u!1045 &1
EditorBuildSettings:
  m_ObjectHideFlags: 0
  serializedVersion: 2
  m_Scenes:
  - enabled: 1
    path: Assets/Scenes/Start.unity
    guid: 3f63e2d40db085c429c77866446e38af
  - enabled: 1
    path: Assets/Scenes/HighScore.unity
    guid: 48ac1d9e684ed5e4090b6550c0bd756f
  - enabled: 1
    path: Assets/Scenes/LevelSelection.unity
    guid: e16c15ff2705ffc4aa49b30add3ea2eb
  - enabled: 1
    path: Assets/Scenes/Shop.unity
    guid: 72ed563942a096b469561b7994885dc8
  - enabled: 1
    path: Assets/Scenes/Armin Test/Lobby.unity
    guid: 0465c5c709f17344cb72390dd6e3ad9c
  - enabled: 1
    path: Assets/Scenes/Loading Scene.unity
    guid: 42b97520204f76540b9c323576fbebc8
  - enabled: 1
    path: Assets/Scenes/lala.unity
    guid: a15e113487039474e9d8c41cd36ef0ad
  - enabled: 1
    path: Assets/Scenes/Map Armin.unity
    guid: 6ffd923c083a3b649a5244735d7a1c77
  - enabled: 1
    path: Assets/Scenes/PvP_Map.unity
    guid: b07a60febff43c249aa2ee7e33d12a5c
  m_configObjects: {}
